A resource for self-guided learning - Manipulating, analyzing, and exporting data with tidyverse
…
group_by() and summarize(): create summary statistics on grouped data

arrange(): sort results

count(): count discrete values

Selecting columns and filtering rows

To select columns of a dataframe, we use select().

select(datafame, columns_to_keep)

select(surveys, plot_id, species_id, weight)

# A tibble: 34,786 × 3
   plot_id species_id weight
     <dbl> <chr>       <dbl>
 1       2 NL             NA
 2       2 NL             NA
 3       2 NL             NA
 4       2 NL             NA
 5       2 NL             NA
 6       2 NL             NA
 7       2 NL             NA
 8       2 NL             NA
 9       2 NL            218
10       2 NL             NA
# … with 34,776 more rows

To EXCLUDE a specific column, put - in front of the variable.

select(surveys, -record_id, -species_id)

# A tibble: 34,786 × 11
   month   day  year plot_id sex   hindfoot…¹ weight genus species taxa  plot_…²
   <dbl> <dbl> <dbl>   <dbl> <chr>      <dbl>  <dbl> <chr> <chr>   <chr> <chr>  
 1     7    16  1977       2 M             32     NA Neot… albigu… Rode… Control
 2     8    19  1977       2 M             31     NA Neot… albigu… Rode… Control
 3     9    13  1977       2 <NA>          NA     NA Neot… albigu… Rode… Control
 4    10    16  1977       2 <NA>          NA     NA Neot… albigu… Rode… Control
 5    11    12  1977       2 <NA>          NA     NA Neot… albigu… Rode… Control
 6    11    12  1977       2 <NA>          NA     NA Neot… albigu… Rode… Control
 7    12    10  1977       2 <NA>          NA     NA Neot… albigu… Rode… Control
 8     1     8  1978       2 <NA>          NA     NA Neot… albigu… Rode… Control
 9     2    18  1978       2 M             NA    218 Neot… albigu… Rode… Control
10     3    11  1978       2 <NA>          NA     NA Neot… albigu… Rode… Control
# … with 34,776 more rows, and abbreviated variable names ¹​hindfoot_length,
#   ²​plot_type

To choose specific rows based on criteria, we use filter()

filter(surveys, year == 1995)

# A tibble: 1,180 × 13
   record…¹ month   day  year plot_id speci…² sex   hindf…³ weight genus species
      <dbl> <dbl> <dbl> <dbl>   <dbl> <chr>   <chr>   <dbl>  <dbl> <chr> <chr>  
 1    22314     6     7  1995       2 NL      M          34     NA Neot… albigu…
 2    22728     9    23  1995       2 NL      F          32    165 Neot… albigu…
 3    22899    10    28  1995       2 NL      F          32    171 Neot… albigu…
 4    23032    12     2  1995       2 NL      F          33     NA Neot… albigu…
 5    22003     1    11  1995       2 DM      M          37     41 Dipo… merria…
 6    22042     2     4  1995       2 DM      F          36     45 Dipo… merria…
 7    22044     2     4  1995       2 DM      M          37     46 Dipo… merria…
 8    22105     3     4  1995       2 DM      F          37     49 Dipo… merria…
 9    22109     3     4  1995       2 DM      M          37     46 Dipo… merria…
10    22168     4     1  1995       2 DM      M          36     48 Dipo… merria…
# … with 1,170 more rows, 2 more variables: taxa <chr>, plot_type <chr>, and
#   abbreviated variable names ¹​record_id, ²​species_id, ³​hindfoot_length
…
surveys_sml

Note that the final dataframe is the leftmost part of this expression.

Challenge

Q&A: Using pipes, subset the surveys data to include animals collected before 1995 and retain only the columns year, sex, and weight.

Click here for the answer

surveys %>%
    filter(year < 1995) %>%
    select(year, sex, weight)

# A tibble: 21,486 × 3
    year sex   weight
   <dbl> <chr>  <dbl>
 1  1977 M         NA
 2  1977 M         NA
 3  1977 <NA>      NA
 4  1977 <NA>      NA
 5  1977 <NA>      NA
 6  1977 <NA>      NA
 7  1977 <NA>      NA
 8  1978 <NA>      NA
 9  1978 M        218
10  1978 <NA>      NA
# … with 21,476 more rows

Mutate

Frequently you’ll want to create new columns based on the values in existing columns, for example to do unit conversions, or to find the ratio of values in two columns. For this we’ll use mutate().

To create a new column of weight in kg

surveys %>%
  mutate(weight_kg = weight / 1000) #assign the column name to the left of the "="

# A tibble: 34,786 × 14
   record…¹ month   day  year plot_id speci…² sex   hindf…³ weight genus species
      <dbl> <dbl> <dbl> <dbl>   <dbl> <chr>   <chr>   <dbl>  <dbl> <chr> <chr>  
 1        1     7    16  1977       2 NL      M          32     NA Neot… albigu…
 2       72     8    19  1977       2 NL      M          31     NA Neot… albigu…
 3      224     9    13  1977       2 NL      <NA>       NA     NA Neot… albigu…
 4      266    10    16  1977       2 NL      <NA>       NA     NA Neot… albigu…
 5      349    11    12  1977       2 NL      <NA>       NA     NA Neot… albigu…
 6      363    11    12  1977       2 NL      <NA>       NA     NA Neot… albigu…
 7      435    12    10  1977       2 NL      <NA>       NA     NA Neot… albigu…
 8      506     1     8  1978       2 NL      <NA>       NA     NA Neot… albigu…
 9      588     2    18  1978       2 NL      M          NA    218 Neot… albigu…
10      661     3    11  1978       2 NL      <NA>       NA     NA Neot… albigu…
# … with 34,776 more rows, 3 more variables: taxa <chr>, plot_type <chr>,
#   weight_kg <dbl>, and abbreviated variable names ¹​record_id, ²​species_id,
#   ³​hindfoot_length

You can also create a second new column based on the first new column within the same call of mutate()

surveys %>%
  mutate(weight_kg = weight / 1000,
         weight_lb = weight_kg * 2.2)

# A tibble: 34,786 × 15
   record…¹ month   day  year plot_id speci…² sex   hindf…³ weight genus species
      <dbl> <dbl> <dbl> <dbl>   <dbl> <chr>   <chr>   <dbl>  <dbl> <chr> <chr>  
 1        1     7    16  1977       2 NL      M          32     NA Neot… albigu…
 2       72     8    19  1977       2 NL      M          31     NA Neot… albigu…
 3      224     9    13  1977       2 NL      <NA>       NA     NA Neot… albigu…
 4      266    10    16  1977       2 NL      <NA>       NA     NA Neot… albigu…
 5      349    11    12  1977       2 NL      <NA>       NA     NA Neot… albigu…
 6      363    11    12  1977       2 NL      <NA>       NA     NA Neot… albigu…
 7      435    12    10  1977       2 NL      <NA>       NA     NA Neot… albigu…
 8      506     1     8  1978       2 NL      <NA>       NA     NA Neot… albigu…
 9      588     2    18  1978       2 NL      M          NA    218 Neot… albigu…
10      661     3    11  1978       2 NL      <NA>       NA     NA Neot… albigu…
# … with 34,776 more rows, 4 more variables: taxa <chr>, plot_type <chr>,
#   weight_kg <dbl>, weight_lb <dbl>, and abbreviated variable names
#   ¹​record_id, ²​species_id, ³​hindfoot_length
…
Here, we used tail() to look at the last six rows of our summary. Before, we had used head() to look at the first six rows.

We can see that the sex column contains NA values. The resulting mean_weight column does not contain NA but NaN (which refers to “Not a Number”) because mean() was called on a vector of NA values while at the same time setting na.rm = TRUE (we didn’t filter out the rows, we just omitted the NAs from the calculation).

To avoid this, we can remove the missing values for weight before we attempt to calculate the summary statistics on weight. Because the missing values are removed first, we can omit na.rm = TRUE when computing the mean.

surveys %>%
  filter(!is.na(weight)) %>%
  group_by(sex, species_id) %>%
  summarize(mean_weight = mean(weight))

`summarise()` has grouped output by 'sex'. You can override using the `.groups`
argument.

# A tibble: 64 × 3
# Groups:   sex [3]
   sex   species_id mean_weight
   <chr> <chr>            <dbl>
 1 F     BA                9.16
 2 F     DM               41.6 
 3 F     DO               48.5 
 4 F     DS              118.  
 5 F     NL              154.  
 6 F     OL               31.1 
 7 F     OT               24.8 
 8 F     OX               21   
 9 F     PB               30.2 
10 F     PE               22.8 
# … with 54 more rows

Once the data are grouped, you can also summarize multiple variables at the same time (and not necessarily on the same variable).

For instance, we could add a column indicating the minimum weight for each species for each sex.

surveys %>%
  filter(!is.na(weight)) %>%
  group_by(sex, species_id) %>%
  summarize(mean_weight = mean(weight),
            min_weight = min(weight))

`summarise()` has grouped output by 'sex'. You can override using the `.groups`
argument.

# A tibble: 64 × 4
# Groups:   sex [3]
   sex   species_id mean_weight min_weight
   <chr> <chr>            <dbl>      <dbl>
 1 F     BA                9.16          6
 2 F     DM               41.6          10
 3 F     DO               48.5          12
 4 F     DS              118.           45
 5 F     NL              154.           32
 6 F     OL               31.1          10
 7 F     OT               24.8           5
 8 F     OX               21            20
 9 F     PB               30.2          12
10 F     PE               22.8          11
# … with 54 more rows
We can also arrange the data.

For example, let’s sort (low to high value) on min_weight.

surveys %>%
  filter(!is.na(weight)) %>%
  group_by(sex, species_id) %>%
  summarize(mean_weight = mean(weight),
            min_weight = min(weight)) %>%
  arrange(min_weight)

`summarise()` has grouped output by 'sex'. You can override using the `.groups`
argument.

# A tibble: 64 × 4
# Groups:   sex [3]
   sex   species_id mean_weight min_weight
   <chr> <chr>            <dbl>      <dbl>
 1 F     PF                7.97          4
 2 F     RM               11.1           4
 3 M     PF                7.89          4
 4 M     PP               17.2           4
 5 M     RM               10.1           4
 6 <NA>  PF                6             4
 7 F     OT               24.8           5
 8 F     PP               17.2           5
 9 F     BA                9.16          6
10 M     BA                7.36          6
# … with 54 more rows

We can sort in descending order by using the desc() function.

surveys %>%
  filter(!is.na(weight)) %>%
  group_by(sex, species_id) %>%
  summarize(mean_weight = mean(weight),
            min_weight = min(weight)) %>%
  arrange(desc(mean_weight))

`summarise()` has grouped output by 'sex'. You can override using the `.groups`
argument.

# A tibble: 64 × 4
# Groups:   sex [3]
   sex   species_id mean_weight min_weight
   <chr> <chr>            <dbl>      <dbl>
 1 <NA>  NL               168.          83
 2 M     NL               166.          30
 3 F     NL               154.          32
 4 M     SS               130          130
 5 <NA>  SH               130          130
 6 M     DS               122.          12
 7 <NA>  DS               120           78
 8 F     DS               118.          45
 9 F     SH                78.8         30
10 F     SF                69           46
# … with 54 more rows
…
# A tibble: 3 × 2
  sex       n
  <chr> <int>
1 M     17348
2 F     15690
3 <NA>   1748

Previous example shows the use of count() to count the number of rows/observations for one factor (i.e., sex).

If we wanted to count combination of factors, such as sex and species, we would specify the first and the second factor as the arguments of count()

surveys %>%
  count(sex, species)

# A tibble: 81 × 3
   sex   species         n
   <chr> <chr>       <int>
 1 F     albigula      675
 2 F     baileyi      1646
 3 F     eremicus      579
 4 F     flavus        757
 5 F     fulvescens     57
 6 F     fulviventer    17
 7 F     hispidus       99
 8 F     leucogaster   475
 9 F     leucopus       16
10 F     maniculatus   382
# … with 71 more rows

With the above code, we can then use arrange() to sort the table according to a number of criteria so that we have a better comparison.

For instance, we might want to arrange the table above in

an alphabetical order of the levels of the species

in descending order of the count

surveys %>%
  count(sex, species) %>%
  arrange(species, desc(n)) #n is the column name of the counts output from the count command, so it's used here to define the decreasing on value

# A tibble: 81 × 3
   sex   species             n
   <chr> <chr>           <int>
 1 F     albigula          675
 2 M     albigula          502
 3 <NA>  albigula           75
 4 <NA>  audubonii          75
 5 F     baileyi          1646
 6 M     baileyi          1216
 7 <NA>  baileyi            29
 8 <NA>  bilineata         303
 9 <NA>  brunneicapillus    50
10 <NA>  chlorurus          39
# … with 71 more rows
…
Q&A: Starting with survey, use group_by() and summarize() to find the mean, min, and max hindfoot length for each species (using species_id). Also add the number of observations (hint: see ?n).

Click here for the answer

surveys %>%
    filter(!is.na(hindfoot_length)) %>% #remove NAs
    group_by(species_id) %>% #group by species
    summarize( #give me this output/table with the following
      mean_val = mean(hindfoot_length), #mean_cal column, computing the mean on column x
      min_val = min(hindfoot_length), #min_cal column, computing the min on column x
      max_val = max(hindfoot_length), #max_cal column, computing the max on column x
      n = n()) #gives number of current groups size

# A tibble: 25 × 5
   species_id mean_val min_val max_val     n
   <chr>         <dbl>   <dbl>   <dbl> <int>
 1 AH             33        31      35     2
 2 BA             13         6      16    45
 3 DM             36.0      16      50  9972
 4 DO             35.6      26      64  2887
 5 DS             49.9      39      58  2132
 6 NL             32.3      21      70  1074
 7 OL             20.5      12      39   920
 8 OT             20.3      13      50  2139
 9 OX             19.1      13      21     8
10 PB             26.1       2      47  2864
# … with 15 more rows

Challenge

Q&A: Starting with survey, what was the heaviest animal measured in each year? Return the columns year, genus, species_id, and weight.

Click here for the answer

surveys %>%
    filter(!is.na(weight)) %>% #filter out NA
    group_by(year) %>% #group by species
    filter(weight == max(weight)) %>% #select the max weight rows for each year, save to weight column
    select(year, genus, species, weight) %>% #select specific columns of interest
    arrange(year) #arrange in ascending order by year

# A tibble: 27 × 4
# Groups:   year [26]
    year genus     species     weight
   <dbl> <chr>     <chr>        <dbl>
 1  1977 Dipodomys spectabilis    149
 2  1978 Neotoma   albigula       232
 3  1978 Neotoma   albigula       232
 4  1979 Neotoma   albigula       274
 5  1980 Neotoma   albigula       243
 6  1981 Neotoma   albigula       264
 7  1982 Neotoma   albigula       252
 8  1983 Neotoma   albigula       256
 9  1984 Neotoma   albigula       259
10  1985 Neotoma   albigula       225
# … with 17 more rows
…
