A resource for self-guided learning - Starting with data
…
surveys[1, ]

# A tibble: 1 × 13
  record_id month   day  year plot_id speci…¹ sex   hindf…² weight genus species
      <dbl> <dbl> <dbl> <dbl>   <dbl> <chr>   <chr>   <dbl>  <dbl> <chr> <chr>  
1         1     7    16  1977       2 NL      M          32     NA Neot… albigu…
# … with 2 more variables: taxa <chr>, plot_type <chr>, and abbreviated
#   variable names ¹​species_id, ²​hindfoot_length

All rows, first column

surveys[, 1]

# A tibble: 34,786 × 1
   record_id
       <dbl>
 1         1
 2        72
 3       224
 4       266
 5       349
 6       363
 7       435
 8       506
 9       588
10       661
# … with 34,776 more rows

Another way to get a specific column, all rows. Note, there is no comma used.

surveys[1]

# A tibble: 34,786 × 1
   record_id
       <dbl>
 1         1
 2        72
 3       224
 4       266
 5       349
 6       363
 7       435
 8       506
 9       588
10       661
# … with 34,776 more rows
…
surveys[[1]]

The first value in our dataframe.

surveys[[1,1]]

[1] 1

Excluding indices – use -

All rows, all but the first column

surveys[, -1]

# A tibble: 34,786 × 12
   month   day  year plot_id species_id sex   hindf…¹ weight genus species taxa 
   <dbl> <dbl> <dbl>   <dbl> <chr>      <chr>   <dbl>  <dbl> <chr> <chr>   <chr>
 1     7    16  1977       2 NL         M          32     NA Neot… albigu… Rode…
 2     8    19  1977       2 NL         M          31     NA Neot… albigu… Rode…
 3     9    13  1977       2 NL         <NA>       NA     NA Neot… albigu… Rode…
 4    10    16  1977       2 NL         <NA>       NA     NA Neot… albigu… Rode…
 5    11    12  1977       2 NL         <NA>       NA     NA Neot… albigu… Rode…
 6    11    12  1977       2 NL         <NA>       NA     NA Neot… albigu… Rode…
 7    12    10  1977       2 NL         <NA>       NA     NA Neot… albigu… Rode…
 8     1     8  1978       2 NL         <NA>       NA     NA Neot… albigu… Rode…
 9     2    18  1978       2 NL         M          NA    218 Neot… albigu… Rode…
10     3    11  1978       2 NL         <NA>       NA     NA Neot… albigu… Rode…
# … with 34,776 more rows, 1 more variable: plot_type <chr>, and abbreviated
#   variable name ¹​hindfoot_length
…
